{
  "restartable": "rs",
  "ignore": [
    ".git",
    "node_modules/**/node_modules",
    "public/*",
    "frontend/*"
  ],
  "verbose": true,
  "execMap": {
    "js": "node --harmony"
  },
  "watch": "*.*",
  "env": {
    "NODE_ENV": "development",
    "NODE_PATH": "./modules"
  },
  "ext": "js json jade"
}